{
  "name": "Socrates-demo",
  "description": "Socrates-demo",
  "version": "v0.0.1",
  "system": {
    "name": "Socrates",
    "url": "https://socrates-cleword-explore.test.oc.forchange.cn/#/system"
  },
  "main": "start",
  "input": "src",
  "output": "out",
  "schema": "schema"
}
